<mxfile host="app.diagrams.net" modified="2021-05-24T13:10:16.352Z" agent="5.0 (X11; Linux x86_64) AppleWebKit/537.36 (KHTML, like Gecko) Chrome/90.0.4430.212 Safari/537.36" etag="gaXmZDL1-OIL4A9JxICo" version="14.7.0" type="gitlab">
  <diagram id="v-d_fOYgqaM5V52-nBWK" name="Page-1">
    <mxGraphModel dx="1821" dy="626" grid="1" gridSize="10" guides="1" tooltips="1" connect="1" arrows="1" fold="1" page="1" pageScale="1" pageWidth="827" pageHeight="1169" math="0" shadow="0">
      <root>
        <mxCell id="0" />
        <mxCell id="1" parent="0" />
        <mxCell id="5llH7KQntmgMWz26y-Tk-1" value="Privado" style="rounded=0;whiteSpace=wrap;html=1;fillColor=#d80073;strokeColor=#A50040;fontColor=#ffffff;" vertex="1" parent="1">
          <mxGeometry x="80" y="80" width="160" height="80" as="geometry" />
        </mxCell>
        <mxCell id="5llH7KQntmgMWz26y-Tk-2" value="Paceiro" style="rounded=0;whiteSpace=wrap;html=1;fillColor=#6a00ff;strokeColor=#3700CC;fontColor=#ffffff;" vertex="1" parent="1">
          <mxGeometry x="240" y="80" width="160" height="80" as="geometry" />
        </mxCell>
        <mxCell id="5llH7KQntmgMWz26y-Tk-3" value="Público" style="rounded=0;whiteSpace=wrap;html=1;fillColor=#60a917;strokeColor=#2D7600;fontColor=#ffffff;" vertex="1" parent="1">
          <mxGeometry x="400" y="80" width="160" height="80" as="geometry" />
        </mxCell>
        <mxCell id="5llH7KQntmgMWz26y-Tk-4" value="Área de Uso" style="rounded=0;whiteSpace=wrap;html=1;fillColor=#d80073;strokeColor=#A50040;fontColor=#ffffff;" vertex="1" parent="1">
          <mxGeometry x="-80" y="160" width="160" height="60" as="geometry" />
        </mxCell>
        <mxCell id="5llH7KQntmgMWz26y-Tk-5" value="Consumido por" style="rounded=0;whiteSpace=wrap;html=1;fillColor=#6a00ff;strokeColor=#3700CC;fontColor=#ffffff;" vertex="1" parent="1">
          <mxGeometry x="-80" y="220" width="160" height="60" as="geometry" />
        </mxCell>
        <mxCell id="5llH7KQntmgMWz26y-Tk-6" value="Aplicativos internos da empresa" style="rounded=0;whiteSpace=wrap;html=1;fillColor=#e1d5e7;strokeColor=#9673a6;" vertex="1" parent="1">
          <mxGeometry x="80" y="220" width="160" height="60" as="geometry" />
        </mxCell>
        <mxCell id="5llH7KQntmgMWz26y-Tk-7" value="Aplicativos dos clientes/parceiros" style="rounded=0;whiteSpace=wrap;html=1;fillColor=#e1d5e7;strokeColor=#9673a6;" vertex="1" parent="1">
          <mxGeometry x="240" y="220" width="160" height="60" as="geometry" />
        </mxCell>
        <mxCell id="5llH7KQntmgMWz26y-Tk-8" value="Aplicativos de uso comum / usuário final" style="rounded=0;whiteSpace=wrap;html=1;fillColor=#e1d5e7;strokeColor=#9673a6;" vertex="1" parent="1">
          <mxGeometry x="400" y="220" width="160" height="60" as="geometry" />
        </mxCell>
        <mxCell id="5llH7KQntmgMWz26y-Tk-9" value="APIs usadas internamente" style="rounded=0;whiteSpace=wrap;html=1;fillColor=#d5e8d4;strokeColor=#82b366;" vertex="1" parent="1">
          <mxGeometry x="80" y="160" width="160" height="60" as="geometry" />
        </mxCell>
        <mxCell id="5llH7KQntmgMWz26y-Tk-10" value="APIs publicadas porém acessíveis através de algum tipo de contrato/negócio estabelecido" style="rounded=0;whiteSpace=wrap;html=1;fillColor=#d5e8d4;strokeColor=#82b366;" vertex="1" parent="1">
          <mxGeometry x="240" y="160" width="160" height="60" as="geometry" />
        </mxCell>
        <mxCell id="5llH7KQntmgMWz26y-Tk-11" value="APIs publicadas/acessíveis de forma liberada sem necessidade de identificação do cliente/consumidor" style="rounded=0;whiteSpace=wrap;html=1;fillColor=#d5e8d4;strokeColor=#82b366;" vertex="1" parent="1">
          <mxGeometry x="400" y="160" width="160" height="60" as="geometry" />
        </mxCell>
        <mxCell id="5llH7KQntmgMWz26y-Tk-12" value="Exemplos" style="rounded=0;whiteSpace=wrap;html=1;fillColor=#60a917;strokeColor=#2D7600;fontColor=#ffffff;" vertex="1" parent="1">
          <mxGeometry x="-80" y="280" width="160" height="60" as="geometry" />
        </mxCell>
        <mxCell id="5llH7KQntmgMWz26y-Tk-13" value="Dados do ERP / Funcionários alimentando sistemas de emissão de tickets" style="rounded=0;whiteSpace=wrap;html=1;fillColor=#fff2cc;strokeColor=#d6b656;" vertex="1" parent="1">
          <mxGeometry x="80" y="280" width="160" height="60" as="geometry" />
        </mxCell>
        <mxCell id="5llH7KQntmgMWz26y-Tk-14" value="Verificação de CPF Ativo (Serpro) / Validação de Identidade de Cliente (Serpro)" style="rounded=0;whiteSpace=wrap;html=1;fillColor=#fff2cc;strokeColor=#d6b656;" vertex="1" parent="1">
          <mxGeometry x="240" y="280" width="160" height="60" as="geometry" />
        </mxCell>
        <mxCell id="5llH7KQntmgMWz26y-Tk-15" value="Consulta de CEP / Dados Mundiais" style="rounded=0;whiteSpace=wrap;html=1;fillColor=#fff2cc;strokeColor=#d6b656;" vertex="1" parent="1">
          <mxGeometry x="400" y="280" width="160" height="60" as="geometry" />
        </mxCell>
      </root>
    </mxGraphModel>
  </diagram>
</mxfile>
