<mxfile host="app.diagrams.net" modified="2021-09-18T00:51:07.414Z" agent="5.0 (X11; Linux x86_64) AppleWebKit/537.36 (KHTML, like Gecko) Chrome/92.0.4515.131 Safari/537.36" etag="j7g9QBmSkXNi6sV4pgx9" version="15.2.7" type="gitlab">
  <diagram id="UwrBirloD4UvoxNPRPr8" name="Page-1">
    <mxGraphModel dx="1422" dy="806" grid="1" gridSize="10" guides="1" tooltips="1" connect="1" arrows="1" fold="1" page="1" pageScale="1" pageWidth="827" pageHeight="1169" math="0" shadow="0">
      <root>
        <mxCell id="0" />
        <mxCell id="1" parent="0" />
        <mxCell id="DKUkLDE5ki5TGn2tji-R-1" value="" style="rounded=1;whiteSpace=wrap;html=1;" vertex="1" parent="1">
          <mxGeometry x="210" y="100" width="250" height="90" as="geometry" />
        </mxCell>
        <mxCell id="DKUkLDE5ki5TGn2tji-R-2" value="" style="rounded=1;whiteSpace=wrap;html=1;" vertex="1" parent="1">
          <mxGeometry x="210" y="290" width="250" height="90" as="geometry" />
        </mxCell>
        <mxCell id="DKUkLDE5ki5TGn2tji-R-3" value="br.edu.cest" style="text;html=1;strokeColor=none;fillColor=none;align=center;verticalAlign=middle;whiteSpace=wrap;rounded=0;" vertex="1" parent="1">
          <mxGeometry x="220" y="260" width="40" height="20" as="geometry" />
        </mxCell>
        <mxCell id="DKUkLDE5ki5TGn2tji-R-4" value="App" style="rounded=0;whiteSpace=wrap;html=1;" vertex="1" parent="1">
          <mxGeometry x="220" y="300" width="80" height="30" as="geometry" />
        </mxCell>
        <mxCell id="DKUkLDE5ki5TGn2tji-R-5" value="App2" style="rounded=0;whiteSpace=wrap;html=1;" vertex="1" parent="1">
          <mxGeometry x="374" y="300" width="80" height="30" as="geometry" />
        </mxCell>
        <mxCell id="DKUkLDE5ki5TGn2tji-R-8" value="" style="rounded=1;whiteSpace=wrap;html=1;" vertex="1" parent="1">
          <mxGeometry x="210" y="420" width="250" height="90" as="geometry" />
        </mxCell>
        <mxCell id="DKUkLDE5ki5TGn2tji-R-7" value="App" style="rounded=0;whiteSpace=wrap;html=1;" vertex="1" parent="1">
          <mxGeometry x="254" y="450" width="120" height="30" as="geometry" />
        </mxCell>
        <mxCell id="DKUkLDE5ki5TGn2tji-R-9" value="br.com.mauriciosa" style="text;html=1;strokeColor=none;fillColor=none;align=center;verticalAlign=middle;whiteSpace=wrap;rounded=0;" vertex="1" parent="1">
          <mxGeometry x="240" y="400" width="40" height="20" as="geometry" />
        </mxCell>
      </root>
    </mxGraphModel>
  </diagram>
</mxfile>
